python: can't open file 'hajm_version2.py': [Errno 2] No such file or directory
python: can't open file 'hajm_version2.py': [Errno 2] No such file or directory
python: can't open file 'hajm_version2.py': [Errno 2] No such file or directory
